<?xml version="1.0" encoding="utf-8"?>
<!-- Generator: Adobe Illustrator 19.0.0, SVG Export Plug-In . SVG Version: 6.00 Build 0)  -->
<svg version="1.1" id="Layer_1" xmlns="http://www.w3.org/2000/svg" xmlns:xlink="http://www.w3.org/1999/xlink" x="0px" y="0px"
	 viewBox="0 0 150 100" style="enable-background:new 0 0 150 100;" xml:space="preserve">
<style type="text/css">
	.st0{fill:#0054A6;}
	.st1{fill:#0054A6;stroke:#0054A6;stroke-width:2;stroke-miterlimit:10;}
</style>
<polygon class="st0" points="39,32.2 36.9,31 36.6,36.3 35.9,37.7 32.1,35.5 32.8,34.2 34.9,35.3 35.2,30 36,28.6 39.8,30.8 "/>
<polygon class="st0" points="112.1,17.3 122.6,17.3 144.9,54 134.8,54 "/>
<polygon class="st0" points="131.9,54 95.9,54 100.6,46.7 116.9,46.7 110.5,36 105.1,36 108.3,28.6 116.6,28.6 131.9,54 131.9,54 
	"/>
<polygon class="st0" points="62.9,54 67.2,46.8 83.9,46.8 83.9,28.6 93,28.6 93,54 "/>
<polygon class="st0" points="98.1,14.4 92.4,6.5 63.9,6.5 63.9,6.5 41.1,44.9 19.1,45 22.5,38.9 13.1,38.8 4.9,54 47.1,54 70,14.4 
	"/>
<polygon class="st0" points="80.9,17.3 71,17.3 49.9,54 60.1,54 "/>
<g>
	<path class="st1" d="M10.3,64.3c-0.7-0.5-1-1.2-1-1.9c0-0.8,0.3-1.4,1-1.9c0.7-0.5,1.5-0.8,2.4-0.8c0.9,0,1.7,0.3,2.4,0.8
		c0.7,0.5,1,1.2,1,1.9c0,0.8-0.3,1.4-1,1.9c-0.7,0.5-1.5,0.8-2.4,0.8C11.8,65.1,11,64.8,10.3,64.3z M10.8,91.1
		c-0.5-0.4-0.8-0.9-0.8-1.5V71c0-0.6,0.3-1.2,0.8-1.5c0.5-0.4,1.1-0.6,1.9-0.6c0.8,0,1.4,0.2,1.9,0.6c0.5,0.4,0.7,0.9,0.7,1.5v18.6
		c0,0.6-0.2,1.1-0.7,1.5c-0.5,0.4-1.1,0.6-1.9,0.6C11.9,91.7,11.3,91.5,10.8,91.1z"/>
	<path class="st1" d="M51.7,59.6c0.5,0.4,0.7,0.9,0.7,1.5v19.1c0,2.2-0.6,4.1-1.9,5.9c-1.3,1.8-3,3.2-5.1,4.2
		c-2.2,1-4.6,1.5-7.3,1.5c-2.7,0-5.1-0.5-7.3-1.5c-2.2-1-3.9-2.4-5.2-4.2c-1.2-1.8-1.9-3.7-1.9-5.9c0-2.2,0.6-4.1,1.7-5.9
		c1.2-1.8,2.8-3.2,4.8-4.2c2-1,4.3-1.5,6.8-1.5c2,0,3.9,0.3,5.6,1c1.7,0.7,3.2,1.6,4.4,2.8V61.2c0-0.6,0.3-1.2,0.8-1.5
		c0.5-0.4,1.1-0.6,1.9-0.6C50.6,59.1,51.2,59.3,51.7,59.6z M42.8,87.1c1.4-0.7,2.5-1.6,3.3-2.8c0.8-1.2,1.2-2.5,1.2-4
		c0-1.5-0.4-2.8-1.2-4c-0.8-1.2-1.9-2.1-3.3-2.8c-1.4-0.7-3-1-4.7-1c-1.7,0-3.3,0.3-4.7,1c-1.4,0.7-2.5,1.6-3.3,2.8
		c-0.8,1.2-1.2,2.5-1.2,4c0,1.5,0.4,2.8,1.2,4c0.8,1.2,1.9,2.1,3.3,2.8c1.4,0.7,3,1,4.7,1C39.9,88.1,41.4,87.8,42.8,87.1z"/>
	<path class="st1" d="M80.1,69.3c1,0.4,1.6,1,1.6,1.7c0,0.2,0,0.3-0.1,0.4c-0.3,0.9-1,1.3-2.1,1.3c-0.2,0-0.4,0-0.8-0.1
		c-1.4-0.2-2.5-0.3-3.4-0.3c-2.5,0-4.5,0.5-6,1.4c-1.5,0.9-2.3,2.2-2.3,3.7v12.2c0,0.7-0.2,1.2-0.7,1.5c-0.4,0.4-1.1,0.5-2,0.5
		c-0.8,0-1.5-0.2-1.9-0.5c-0.5-0.3-0.7-0.9-0.7-1.6V70.9c0-0.7,0.2-1.2,0.7-1.5c0.5-0.4,1.1-0.5,1.9-0.5c1.7,0,2.6,0.7,2.6,2.1v0.8
		c1-1,2.3-1.7,3.8-2.3c1.5-0.6,3.2-0.8,4.9-0.8C77.6,68.6,79,68.8,80.1,69.3z"/>
	<path class="st1" d="M105.2,70.2c2.2,1,3.9,2.4,5.1,4.2c1.3,1.8,1.9,3.7,1.9,5.9v9.3c0,0.6-0.3,1.1-0.8,1.5
		c-0.5,0.4-1.1,0.6-1.9,0.6s-1.4-0.2-1.9-0.6c-0.5-0.4-0.8-0.9-0.8-1.5v-1.5c-1.2,1.2-2.7,2.1-4.4,2.8c-1.7,0.7-3.6,1-5.6,1
		c-2.5,0-4.8-0.5-6.8-1.5c-2-1-3.6-2.4-4.8-4.2s-1.7-3.7-1.7-5.9c0-2.2,0.6-4.1,1.9-5.9c1.2-1.8,3-3.2,5.2-4.2
		c2.2-1,4.6-1.5,7.3-1.5C100.6,68.7,103,69.2,105.2,70.2z M102.6,87.1c1.4-0.7,2.5-1.6,3.3-2.8c0.8-1.2,1.2-2.5,1.2-4
		c0-1.5-0.4-2.8-1.2-4c-0.8-1.2-1.9-2.1-3.3-2.8c-1.4-0.7-3-1-4.7-1c-1.7,0-3.3,0.3-4.7,1c-1.4,0.7-2.5,1.6-3.3,2.8
		c-0.8,1.2-1.2,2.5-1.2,4c0,1.5,0.4,2.8,1.2,4c0.8,1.2,1.9,2.1,3.3,2.8c1.4,0.7,3,1,4.7,1C99.6,88.1,101.2,87.8,102.6,87.1z"/>
	<path class="st1" d="M142.2,90c0,0.6-0.3,1.1-0.9,1.5c-0.5,0.3-1.1,0.5-1.7,0.5c-0.8,0-1.4-0.3-1.9-0.8l-9.9-9.8l-2.6,1.8v6.4
		c0,0.6-0.2,1.1-0.7,1.5c-0.5,0.4-1.1,0.6-1.8,0.6s-1.4-0.2-1.8-0.6c-0.5-0.4-0.7-0.9-0.7-1.5V61.1c0-0.6,0.2-1.1,0.7-1.5
		c0.5-0.4,1.1-0.6,1.8-0.6s1.4,0.2,1.8,0.6c0.5,0.4,0.7,0.9,0.7,1.5v17l12.6-9.1c0.5-0.4,1-0.5,1.6-0.5c0.7,0,1.3,0.2,1.8,0.7
		c0.5,0.4,0.7,0.8,0.7,1.3c0,0.6-0.3,1.1-0.8,1.4l-9.6,6.9l10.1,10C142,89,142.2,89.5,142.2,90z"/>
</g>
</svg>
